%YAML 1.1
%TAG !u! tag:unity3d.com,2011:
--- !u!74 &7400000
AnimationClip:
  m_ObjectHideFlags: 0
  m_CorrespondingSourceObject: {fileID: 0}
  m_PrefabInternal: {fileID: 0}
  m_Name: Hero_Dead
  serializedVersion: 6
  m_Legacy: 0
  m_Compressed: 0
  m_UseHighQualityCurve: 1
  m_RotationCurves: []
  m_CompressedRotationCurves: []
  m_EulerCurves: []
  m_PositionCurves: []
  m_ScaleCurves: []
  m_FloatCurves: []
  m_PPtrCurves:
  - curve:
    - time: 0
      value: {fileID: 21300000, guid: 8406606aa96164973be45461314d7a46, type: 3}
    - time: 0.083333336
      value: {fileID: 21300000, guid: f30a811fe0dff464daf1f260b27401f4, type: 3}
    - time: 0.16666667
      value: {fileID: 21300000, guid: eb245c45a8c3d49d682e73a8d9e905a5, type: 3}
    - time: 0.25
      value: {fileID: 21300000, guid: fde4fa87a1f6c4fe5a9f1b07684c0fa8, type: 3}
    - time: 0.33333334
      value: {fileID: 21300000, guid: 44a05886223de461a93877f599e0615d, type: 3}
    - time: 0.41666666
      value: {fileID: 21300000, guid: 32b45332db7034d52be036bebda9bbd0, type: 3}
    - time: 0.5
      value: {fileID: 21300000, guid: 754ab613bdb514f64bcc63938e104852, type: 3}
    - time: 0.5833333
      value: {fileID: 21300000, guid: 4b6e246c50fed48858b7edb85f0bb4ca, type: 3}
    - time: 0.6666667
      value: {fileID: 21300000, guid: e68cf9ca4fc2e44c9af961040be9111a, type: 3}
    - time: 0.75
      value: {fileID: 21300000, guid: 55b1b55091f2e4866a7aa9525358ade9, type: 3}
    attribute: m_Sprite
    path: 
    classID: 212
    script: {fileID: 0}
  m_SampleRate: 12
  m_WrapMode: 0
  m_Bounds:
    m_Center: {x: 0, y: 0, z: 0}
    m_Extent: {x: 0, y: 0, z: 0}
  m_ClipBindingConstant:
    genericBindings:
    - serializedVersion: 2
      path: 0
      attribute: 0
      script: {fileID: 0}
      typeID: 212
      customType: 23
      isPPtrCurve: 1
    pptrCurveMapping:
    - {fileID: 21300000, guid: 8406606aa96164973be45461314d7a46, type: 3}
    - {fileID: 21300000, guid: f30a811fe0dff464daf1f260b27401f4, type: 3}
    - {fileID: 21300000, guid: eb245c45a8c3d49d682e73a8d9e905a5, type: 3}
    - {fileID: 21300000, guid: fde4fa87a1f6c4fe5a9f1b07684c0fa8, type: 3}
    - {fileID: 21300000, guid: 44a05886223de461a93877f599e0615d, type: 3}
    - {fileID: 21300000, guid: 32b45332db7034d52be036bebda9bbd0, type: 3}
    - {fileID: 21300000, guid: 754ab613bdb514f64bcc63938e104852, type: 3}
    - {fileID: 21300000, guid: 4b6e246c50fed48858b7edb85f0bb4ca, type: 3}
    - {fileID: 21300000, guid: e68cf9ca4fc2e44c9af961040be9111a, type: 3}
    - {fileID: 21300000, guid: 55b1b55091f2e4866a7aa9525358ade9, type: 3}
  m_AnimationClipSettings:
    serializedVersion: 2
    m_AdditiveReferencePoseClip: {fileID: 0}
    m_AdditiveReferencePoseTime: 0
    m_StartTime: 0
    m_StopTime: 0.8333333
    m_OrientationOffsetY: 0
    m_Level: 0
    m_CycleOffset: 0
    m_HasAdditiveReferencePose: 0
    m_LoopTime: 0
    m_LoopBlend: 0
    m_LoopBlendOrientation: 0
    m_LoopBlendPositionY: 0
    m_LoopBlendPositionXZ: 0
    m_KeepOriginalOrientation: 0
    m_KeepOriginalPositionY: 1
    m_KeepOriginalPositionXZ: 0
    m_HeightFromFeet: 0
    m_Mirror: 0
  m_EditorCurves: []
  m_EulerEditorCurves: []
  m_HasGenericRootTransform: 0
  m_HasMotionFloatCurves: 0
  m_GenerateMotionCurves: 0
  m_Events: []
