%YAML 1.1
%TAG !u! tag:unity3d.com,2011:
--- !u!74 &7400000
AnimationClip:
  m_ObjectHideFlags: 0
  m_CorrespondingSourceObject: {fileID: 0}
  m_PrefabInternal: {fileID: 0}
  m_Name: Enemy_Death
  serializedVersion: 6
  m_Legacy: 0
  m_Compressed: 0
  m_UseHighQualityCurve: 1
  m_RotationCurves: []
  m_CompressedRotationCurves: []
  m_EulerCurves: []
  m_PositionCurves: []
  m_ScaleCurves: []
  m_FloatCurves: []
  m_PPtrCurves:
  - curve:
    - time: 0
      value: {fileID: 21300000, guid: f81a1e9d9550a41d8a5cdbdb4a601ad3, type: 3}
    - time: 0.083333336
      value: {fileID: 21300000, guid: f04474d5704374218b8e2ea3d062a200, type: 3}
    - time: 0.16666667
      value: {fileID: 21300000, guid: ef1564291d9b34cb1888e4e630c46530, type: 3}
    - time: 0.25
      value: {fileID: 21300000, guid: d9b25ee93e8364fd6a1292e7d147de47, type: 3}
    - time: 0.33333334
      value: {fileID: 21300000, guid: b36081b3498d949c4b29f840705d9c82, type: 3}
    - time: 0.41666666
      value: {fileID: 21300000, guid: 903a09131c732418ab39aae3143779c2, type: 3}
    - time: 0.5
      value: {fileID: 21300000, guid: 766760464cbf945f48a1974cc86d5750, type: 3}
    - time: 0.5833333
      value: {fileID: 21300000, guid: b649b78ea7ff243ab8f8b0704e65a831, type: 3}
    - time: 0.6666667
      value: {fileID: 21300000, guid: e2423edf1bd6a4e15a8673b2cce038e8, type: 3}
    - time: 0.75
      value: {fileID: 21300000, guid: f045d1a28ad514212948d25e75d3d479, type: 3}
    attribute: m_Sprite
    path: 
    classID: 212
    script: {fileID: 0}
  m_SampleRate: 12
  m_WrapMode: 0
  m_Bounds:
    m_Center: {x: 0, y: 0, z: 0}
    m_Extent: {x: 0, y: 0, z: 0}
  m_ClipBindingConstant:
    genericBindings:
    - serializedVersion: 2
      path: 0
      attribute: 0
      script: {fileID: 0}
      typeID: 212
      customType: 23
      isPPtrCurve: 1
    pptrCurveMapping:
    - {fileID: 21300000, guid: f81a1e9d9550a41d8a5cdbdb4a601ad3, type: 3}
    - {fileID: 21300000, guid: f04474d5704374218b8e2ea3d062a200, type: 3}
    - {fileID: 21300000, guid: ef1564291d9b34cb1888e4e630c46530, type: 3}
    - {fileID: 21300000, guid: d9b25ee93e8364fd6a1292e7d147de47, type: 3}
    - {fileID: 21300000, guid: b36081b3498d949c4b29f840705d9c82, type: 3}
    - {fileID: 21300000, guid: 903a09131c732418ab39aae3143779c2, type: 3}
    - {fileID: 21300000, guid: 766760464cbf945f48a1974cc86d5750, type: 3}
    - {fileID: 21300000, guid: b649b78ea7ff243ab8f8b0704e65a831, type: 3}
    - {fileID: 21300000, guid: e2423edf1bd6a4e15a8673b2cce038e8, type: 3}
    - {fileID: 21300000, guid: f045d1a28ad514212948d25e75d3d479, type: 3}
  m_AnimationClipSettings:
    serializedVersion: 2
    m_AdditiveReferencePoseClip: {fileID: 0}
    m_AdditiveReferencePoseTime: 0
    m_StartTime: 0
    m_StopTime: 0.8333333
    m_OrientationOffsetY: 0
    m_Level: 0
    m_CycleOffset: 0
    m_HasAdditiveReferencePose: 0
    m_LoopTime: 0
    m_LoopBlend: 0
    m_LoopBlendOrientation: 0
    m_LoopBlendPositionY: 0
    m_LoopBlendPositionXZ: 0
    m_KeepOriginalOrientation: 0
    m_KeepOriginalPositionY: 1
    m_KeepOriginalPositionXZ: 0
    m_HeightFromFeet: 0
    m_Mirror: 0
  m_EditorCurves: []
  m_EulerEditorCurves: []
  m_HasGenericRootTransform: 0
  m_HasMotionFloatCurves: 0
  m_GenerateMotionCurves: 0
  m_Events: []
