%YAML 1.1
%TAG !u! tag:unity3d.com,2011:
--- !u!74 &7400000
AnimationClip:
  m_ObjectHideFlags: 0
  m_CorrespondingSourceObject: {fileID: 0}
  m_PrefabInternal: {fileID: 0}
  m_Name: Enemy_Attack
  serializedVersion: 6
  m_Legacy: 0
  m_Compressed: 0
  m_UseHighQualityCurve: 1
  m_RotationCurves: []
  m_CompressedRotationCurves: []
  m_EulerCurves: []
  m_PositionCurves: []
  m_ScaleCurves: []
  m_FloatCurves: []
  m_PPtrCurves:
  - curve:
    - time: 0
      value: {fileID: 21300000, guid: 8af1d72c71cab4cd389fa6d4d06049a0, type: 3}
    - time: 0.083333336
      value: {fileID: 21300000, guid: 5b6e98951a13448daacbbbda98804b35, type: 3}
    - time: 0.16666667
      value: {fileID: 21300000, guid: 36a2bd97427e64eeea5cdedc713d660a, type: 3}
    - time: 0.25
      value: {fileID: 21300000, guid: a55214d2274ba4163855a99f0c210121, type: 3}
    - time: 0.33333334
      value: {fileID: 21300000, guid: ecded386498d844e7b5a94da2fb8fa94, type: 3}
    - time: 0.41666666
      value: {fileID: 21300000, guid: aaa4ec4ed97cf4441ba7bae5615bd9ae, type: 3}
    - time: 0.5
      value: {fileID: 21300000, guid: 65ecf0e91f38a482ebdeb4693f15c0ef, type: 3}
    - time: 0.5833333
      value: {fileID: 21300000, guid: 9293f01a4d1ed42429638059231c44b4, type: 3}
    - time: 0.6666667
      value: {fileID: 21300000, guid: 1fa9831b0e9494debadcd4443e4a6576, type: 3}
    - time: 0.75
      value: {fileID: 21300000, guid: 60d30698d2c4042abb291652b93c6f2f, type: 3}
    attribute: m_Sprite
    path: 
    classID: 212
    script: {fileID: 0}
  m_SampleRate: 12
  m_WrapMode: 0
  m_Bounds:
    m_Center: {x: 0, y: 0, z: 0}
    m_Extent: {x: 0, y: 0, z: 0}
  m_ClipBindingConstant:
    genericBindings:
    - serializedVersion: 2
      path: 0
      attribute: 0
      script: {fileID: 0}
      typeID: 212
      customType: 23
      isPPtrCurve: 1
    pptrCurveMapping:
    - {fileID: 21300000, guid: 8af1d72c71cab4cd389fa6d4d06049a0, type: 3}
    - {fileID: 21300000, guid: 5b6e98951a13448daacbbbda98804b35, type: 3}
    - {fileID: 21300000, guid: 36a2bd97427e64eeea5cdedc713d660a, type: 3}
    - {fileID: 21300000, guid: a55214d2274ba4163855a99f0c210121, type: 3}
    - {fileID: 21300000, guid: ecded386498d844e7b5a94da2fb8fa94, type: 3}
    - {fileID: 21300000, guid: aaa4ec4ed97cf4441ba7bae5615bd9ae, type: 3}
    - {fileID: 21300000, guid: 65ecf0e91f38a482ebdeb4693f15c0ef, type: 3}
    - {fileID: 21300000, guid: 9293f01a4d1ed42429638059231c44b4, type: 3}
    - {fileID: 21300000, guid: 1fa9831b0e9494debadcd4443e4a6576, type: 3}
    - {fileID: 21300000, guid: 60d30698d2c4042abb291652b93c6f2f, type: 3}
  m_AnimationClipSettings:
    serializedVersion: 2
    m_AdditiveReferencePoseClip: {fileID: 0}
    m_AdditiveReferencePoseTime: 0
    m_StartTime: 0
    m_StopTime: 0.8333333
    m_OrientationOffsetY: 0
    m_Level: 0
    m_CycleOffset: 0
    m_HasAdditiveReferencePose: 0
    m_LoopTime: 0
    m_LoopBlend: 0
    m_LoopBlendOrientation: 0
    m_LoopBlendPositionY: 0
    m_LoopBlendPositionXZ: 0
    m_KeepOriginalOrientation: 0
    m_KeepOriginalPositionY: 1
    m_KeepOriginalPositionXZ: 0
    m_HeightFromFeet: 0
    m_Mirror: 0
  m_EditorCurves: []
  m_EulerEditorCurves: []
  m_HasGenericRootTransform: 0
  m_HasMotionFloatCurves: 0
  m_GenerateMotionCurves: 0
  m_Events: []
